Tue Feb 12 11:40:48 EST 2019	FEED MONEY:	$0.00	$0.00
Tue Feb 12 11:40:57 EST 2019	FEED MONEY:	$10.00	$10.00
Tue Feb 12 11:41:25 EST 2019	Mountain Melter C3	$1.50	$8.50
Tue Feb 12 11:41:40 EST 2019	Mountain Melter C3	$1.50	$7.00
Tue Feb 12 11:41:44 EST 2019	Mountain Melter C3	$1.50	$5.50
Tue Feb 12 11:41:47 EST 2019	Mountain Melter C3	$1.50	$4.00
Tue Feb 12 11:41:54 EST 2019	Mountain Melter C3	$1.50	$2.50
Tue Feb 12 11:42:21 EST 2019	GIVE CHANGE: 	$2.50	$0.00
Tue Feb 12 11:42:34 EST 2019	GIVE CHANGE: 	$0.00	$0.00
